ejercicios_clase_2
…
Ejercicios

Previo

Para esta clase usaremos el dataset “vuelos” que contiene la información de los vuelos con salida en los aeropuertos de Nueva York en el año 2013.

Recordemos cómo importar una base:

library(readxl)
library(dplyr)
vuelos <- read_excel("data/vuelos.xlsx")
vuelos

# A tibble: 336,776 x 19
    anio   mes   dia horario_salida salida_programada atraso_salida
   <dbl> <dbl> <dbl>          <dbl>             <dbl>         <dbl>
 1  2013     1     1            517               515             2
 2  2013     1     1            533               529             4
 3  2013     1     1            542               540             2
 4  2013     1     1            544               545            -1
 5  2013     1     1            554               600            -6
 6  2013     1     1            554               558            -4
 7  2013     1     1            555               600            -5
 8  2013     1     1            557               600            -3
 9  2013     1     1            557               600            -3
10  2013     1     1            558               600            -2
# i 336,766 more rows
# i 13 more variables: horario_llegada <dbl>, llegada_programada <dbl>,
#   atraso_llegada <dbl>, aerolinea <chr>, vuelo <dbl>, codigo_cola <chr>,
#   origen <chr>, destino <chr>, tiempo_vuelo <dbl>, distancia <dbl>,
#   hora <dbl>, minuto <dbl>, fecha_hora <dttm>
…
lo anterior es lo mismo que insertar los argumentos vuelos y aerolinea dentro de la función count

Trabajo básico con filas

Función filter

Se utiliza para seleccionar subconjuntos de datos

Funciona aplicando condiciones lógicas a las filas del conjunto de datos y devolviendo solo aquellas filas que cumplen con esas condiciones.

filter(vuelos, aerolinea=="UA")

# A tibble: 58,665 x 19
    anio   mes   dia horario_salida salida_programada atraso_salida
   <dbl> <dbl> <dbl>          <dbl>             <dbl>         <dbl>
 1  2013     1     1            517               515             2
 2  2013     1     1            533               529             4
 3  2013     1     1            554               558            -4
 4  2013     1     1            558               600            -2
 5  2013     1     1            558               600            -2
 6  2013     1     1            559               600            -1
 7  2013     1     1            607               607             0
 8  2013     1     1            611               600            11
 9  2013     1     1            623               627            -4
10  2013     1     1            628               630            -2
# i 58,655 more rows
# i 13 more variables: horario_llegada <dbl>, llegada_programada <dbl>,
#   atraso_llegada <dbl>, aerolinea <chr>, vuelo <dbl>, codigo_cola <chr>,
#   origen <chr>, destino <chr>, tiempo_vuelo <dbl>, distancia <dbl>,
#   hora <dbl>, minuto <dbl>, fecha_hora <dttm>

en el ejemplo queremos filtrar las filas donde la aerolinea sea igual a “UA”

Trabajo básico con filas

Usando %>%

vuelos %>% filter(aerolinea=="UA")

# A tibble: 58,665 x 19
    anio   mes   dia horario_salida salida_programada atraso_salida
   <dbl> <dbl> <dbl>          <dbl>             <dbl>         <dbl>
 1  2013     1     1            517               515             2
 2  2013     1     1            533               529             4
 3  2013     1     1            554               558            -4
 4  2013     1     1            558               600            -2
 5  2013     1     1            558               600            -2
 6  2013     1     1            559               600            -1
 7  2013     1     1            607               607             0
 8  2013     1     1            611               600            11
 9  2013     1     1            623               627            -4
10  2013     1     1            628               630            -2
# i 58,655 more rows
# i 13 more variables: horario_llegada <dbl>, llegada_programada <dbl>,
#   atraso_llegada <dbl>, aerolinea <chr>, vuelo <dbl>, codigo_cola <chr>,
#   origen <chr>, destino <chr>, tiempo_vuelo <dbl>, distancia <dbl>,
#   hora <dbl>, minuto <dbl>, fecha_hora <dttm>
…
Del dataframe vuelos filtre las filas donde la aerolinea sea UA o DL

Del dataframe vuelos filtre las filas donde la aerolinea sea UA o DL y agregue la condición de que el día sea igual a 12

Filtre la base donde el horario de salida este entre 500 y 1200, luego cuente el número de veces que aparece cada aerolinea

Utilice la misma anidación anterior pero ahora obtenga las cinco primeras filas

Solución ejercicio 1

Obtenga las 100 primeras filas de vuelos

vuelos %>% slice_head(n = 100)

# A tibble: 100 x 19
    anio   mes   dia horario_salida salida_programada atraso_salida
   <dbl> <dbl> <dbl>          <dbl>             <dbl>         <dbl>
 1  2013     1     1            517               515             2
 2  2013     1     1            533               529             4
 3  2013     1     1            542               540             2
 4  2013     1     1            544               545            -1
 5  2013     1     1            554               600            -6
 6  2013     1     1            554               558            -4
 7  2013     1     1            555               600            -5
 8  2013     1     1            557               600            -3
 9  2013     1     1            557               600            -3
10  2013     1     1            558               600            -2
# i 90 more rows
# i 13 more variables: horario_llegada <dbl>, llegada_programada <dbl>,
#   atraso_llegada <dbl>, aerolinea <chr>, vuelo <dbl>, codigo_cola <chr>,
#   origen <chr>, destino <chr>, tiempo_vuelo <dbl>, distancia <dbl>,
#   hora <dbl>, minuto <dbl>, fecha_hora <dttm>

Solución ejercicio 1

Del dataframe vuelos, filtre las filas donde los meses estén entre enero y marzo

vuelos %>% filter(mes %in% 1:3)

# A tibble: 80,789 x 19
    anio   mes   dia horario_salida salida_programada atraso_salida
   <dbl> <dbl> <dbl>          <dbl>             <dbl>         <dbl>
 1  2013     1     1            517               515             2
 2  2013     1     1            533               529             4
 3  2013     1     1            542               540             2
 4  2013     1     1            544               545            -1
 5  2013     1     1            554               600            -6
 6  2013     1     1            554               558            -4
 7  2013     1     1            555               600            -5
 8  2013     1     1            557               600            -3
 9  2013     1     1            557               600            -3
10  2013     1     1            558               600            -2
# i 80,779 more rows
# i 13 more variables: horario_llegada <dbl>, llegada_programada <dbl>,
#   atraso_llegada <dbl>, aerolinea <chr>, vuelo <dbl>, codigo_cola <chr>,
#   origen <chr>, destino <chr>, tiempo_vuelo <dbl>, distancia <dbl>,
#   hora <dbl>, minuto <dbl>, fecha_hora <dttm>

Solución ejercicio 1

Del dataframe vuelos, filtre las filas donde la aerolínea sea UA o DL

vuelos %>% filter(aerolinea=="UA" | aerolinea=="DL")

# A tibble: 106,775 x 19
    anio   mes   dia horario_salida salida_programada atraso_salida
   <dbl> <dbl> <dbl>          <dbl>             <dbl>         <dbl>
 1  2013     1     1            517               515             2
 2  2013     1     1            533               529             4
 3  2013     1     1            554               600            -6
 4  2013     1     1            554               558            -4
 5  2013     1     1            558               600            -2
 6  2013     1     1            558               600            -2
 7  2013     1     1            559               600            -1
 8  2013     1     1            602               610            -8
 9  2013     1     1            606               610            -4
10  2013     1     1            607               607             0
# i 106,765 more rows
# i 13 more variables: horario_llegada <dbl>, llegada_programada <dbl>,
#   atraso_llegada <dbl>, aerolinea <chr>, vuelo <dbl>, codigo_cola <chr>,
#   origen <chr>, destino <chr>, tiempo_vuelo <dbl>, distancia <dbl>,
#   hora <dbl>, minuto <dbl>, fecha_hora <dttm>

Solución ejercicio 1

Del dataframe vuelos, filtre las filas donde la aerolínea sea UA o DL y agregue la condición de que el día sea igual a 12

vuelos %>% filter((aerolinea=="UA" | aerolinea=="DL") & dia == 12)

# A tibble: 3,492 x 19
    anio   mes   dia horario_salida salida_programada atraso_salida
   <dbl> <dbl> <dbl>          <dbl>             <dbl>         <dbl>
 1  2013     1    12            521               515             6
 2  2013     1    12            532               530             2
 3  2013     1    12            554               600            -6
 4  2013     1    12            554               600            -6
 5  2013     1    12            556               600            -4
 6  2013     1    12            557               600            -3
 7  2013     1    12            600               600             0
 8  2013     1    12            602               608            -6
 9  2013     1    12            605               610            -5
10  2013     1    12            605               601             4
# i 3,482 more rows
# i 13 more variables: horario_llegada <dbl>, llegada_programada <dbl>,
#   atraso_llegada <dbl>, aerolinea <chr>, vuelo <dbl>, codigo_cola <chr>,
#   origen <chr>, destino <chr>, tiempo_vuelo <dbl>, distancia <dbl>,
#   hora <dbl>, minuto <dbl>, fecha_hora <dttm>
…
Trabajo básico con columnas

Selección de columnas

Por nombre

vuelos %>% 
  select(aerolinea, vuelo)

# A tibble: 336,776 x 2
   aerolinea vuelo
   <chr>     <dbl>
 1 UA         1545
 2 UA         1714
 3 AA         1141
 4 B6          725
 5 DL          461
 6 UA         1696
 7 B6          507
 8 EV         5708
 9 B6           79
10 AA          301
# i 336,766 more rows

Trabajo básico con columnas

Por posición

vuelos %>% 
  select(1,3,5)

# A tibble: 336,776 x 3
    anio   dia salida_programada
   <dbl> <dbl>             <dbl>
 1  2013     1               515
 2  2013     1               529
 3  2013     1               540
 4  2013     1               545
 5  2013     1               600
 6  2013     1               558
 7  2013     1               600
 8  2013     1               600
 9  2013     1               600
10  2013     1               600
# i 336,766 more rows

Trabajo básico con columnas

Por rango

vuelos %>% 
  select(1:4)

# A tibble: 336,776 x 4
    anio   mes   dia horario_salida
   <dbl> <dbl> <dbl>          <dbl>
 1  2013     1     1            517
 2  2013     1     1            533
 3  2013     1     1            542
 4  2013     1     1            544
 5  2013     1     1            554
 6  2013     1     1            554
 7  2013     1     1            555
 8  2013     1     1            557
 9  2013     1     1            557
10  2013     1     1            558
# i 336,766 more rows

Trabajo básico con columnas

Por selección negativa

vuelos %>% 
  select(-4,-6)

# A tibble: 336,776 x 17
    anio   mes   dia salida_programada horario_llegada llegada_programada
   <dbl> <dbl> <dbl>             <dbl>           <dbl>              <dbl>
 1  2013     1     1               515             830                819
 2  2013     1     1               529             850                830
 3  2013     1     1               540             923                850
 4  2013     1     1               545            1004               1022
 5  2013     1     1               600             812                837
 6  2013     1     1               558             740                728
 7  2013     1     1               600             913                854
 8  2013     1     1               600             709                723
 9  2013     1     1               600             838                846
10  2013     1     1               600             753                745
# i 336,766 more rows
# i 11 more variables: atraso_llegada <dbl>, aerolinea <chr>, vuelo <dbl>,
#   codigo_cola <chr>, origen <chr>, destino <chr>, tiempo_vuelo <dbl>,
#   distancia <dbl>, hora <dbl>, minuto <dbl>, fecha_hora <dttm>

Trabajo básico con columnas

Por condiciones en el nombre

vuelos %>% 
  select(starts_with("horario"))

# A tibble: 336,776 x 2
   horario_salida horario_llegada
            <dbl>           <dbl>
 1            517             830
 2            533             850
 3            542             923
 4            544            1004
 5            554             812
 6            554             740
 7            555             913
 8            557             709
 9            557             838
10            558             753
# i 336,766 more rows

Trabajo básico con columnas

Por condiciones en el nombre

vuelos %>% 
  select(ends_with("programada"))

# A tibble: 336,776 x 2
   salida_programada llegada_programada
               <dbl>              <dbl>
 1               515                819
 2               529                830
 3               540                850
 4               545               1022
 5               600                837
 6               558                728
 7               600                854
 8               600                723
 9               600                846
10               600                745
# i 336,766 more rows

Trabajo básico con columnas

Por condiciones en el nombre

vuelos %>% 
  select(contains("_"))

# A tibble: 336,776 x 9
   horario_salida salida_programada atraso_salida horario_llegada
            <dbl>             <dbl>         <dbl>           <dbl>
 1            517               515             2             830
 2            533               529             4             850
 3            542               540             2             923
 4            544               545            -1            1004
 5            554               600            -6             812
 6            554               558            -4             740
 7            555               600            -5             913
 8            557               600            -3             709
 9            557               600            -3             838
10            558               600            -2             753
# i 336,766 more rows
# i 5 more variables: llegada_programada <dbl>, atraso_llegada <dbl>,
#   codigo_cola <chr>, tiempo_vuelo <dbl>, fecha_hora <dttm>

Trabajo básico con columnas

Renombrar columnas

vuelos %>% 
  rename(salida = horario_salida,
         llegada = horario_llegada)

# A tibble: 336,776 x 19
    anio   mes   dia salida salida_programada atraso_salida llegada
   <dbl> <dbl> <dbl>  <dbl>             <dbl>         <dbl>   <dbl>
 1  2013     1     1    517               515             2     830
 2  2013     1     1    533               529             4     850
 3  2013     1     1    542               540             2     923
 4  2013     1     1    544               545            -1    1004
 5  2013     1     1    554               600            -6     812
 6  2013     1     1    554               558            -4     740
 7  2013     1     1    555               600            -5     913
 8  2013     1     1    557               600            -3     709
 9  2013     1     1    557               600            -3     838
10  2013     1     1    558               600            -2     753
# i 336,766 more rows
# i 12 more variables: llegada_programada <dbl>, atraso_llegada <dbl>,
#   aerolinea <chr>, vuelo <dbl>, codigo_cola <chr>, origen <chr>,
#   destino <chr>, tiempo_vuelo <dbl>, distancia <dbl>, hora <dbl>,
#   minuto <dbl>, fecha_hora <dttm>
…
¿Cuáles son los nombres de las columnas?

flores <- read_excel("data/flores.xlsx")
names(flores)

[1] "Largo.Sepalo" "Ancho.Sepalo" "Largo.Petalo" "Ancho.Petalo" "Especie"     

Solución ejercicio 2

Seleccione las columnas Especie y Largo.Petalo

flores %>% select(Especie, Largo.Petalo)

# A tibble: 150 x 2
   Especie Largo.Petalo
   <chr>          <dbl>
 1 setosa           1.4
 2 setosa           1.4
 3 setosa           1.3
 4 setosa           1.5
 5 setosa           1.4
 6 setosa           1.7
 7 setosa           1.4
 8 setosa           1.5
 9 setosa           1.4
10 setosa           1.5
# i 140 more rows

Solución ejercicio 2

Seleccione las mismas columnas usando su posición

flores %>% select(1,5)

# A tibble: 150 x 2
   Largo.Sepalo Especie
          <dbl> <chr>  
 1          5.1 setosa 
 2          4.9 setosa 
 3          4.7 setosa 
 4          4.6 setosa 
 5          5   setosa 
 6          5.4 setosa 
 7          4.6 setosa 
 8          5   setosa 
 9          4.4 setosa 
10          4.9 setosa 
# i 140 more rows

Solución ejercicio 2

Seleccione las columnas que empiezan con “Largo”

flores %>% select(starts_with("Largo"))

# A tibble: 150 x 2
   Largo.Sepalo Largo.Petalo
          <dbl>        <dbl>
 1          5.1          1.4
 2          4.9          1.4
 3          4.7          1.3
 4          4.6          1.5
 5          5            1.4
 6          5.4          1.7
 7          4.6          1.4
 8          5            1.5
 9          4.4          1.4
10          4.9          1.5
# i 140 more rows

Solución ejercicio 2

Seleccione las columnas que terminen con “Sepalo”

flores %>% select(ends_with("Sepalo"))

# A tibble: 150 x 2
   Largo.Sepalo Ancho.Sepalo
          <dbl>        <dbl>
 1          5.1          3.5
 2          4.9          3  
 3          4.7          3.2
 4          4.6          3.1
 5          5            3.6
 6          5.4          3.9
 7          4.6          3.4
 8          5            3.4
 9          4.4          2.9
10          4.9          3.1
# i 140 more rows

Solución ejercicio 2

Seleccione las columnas que no contengan “.”

flores %>% select(!contains("."))

# A tibble: 150 x 1
   Especie
   <chr>  
 1 setosa 
 2 setosa 
 3 setosa 
 4 setosa 
 5 setosa 
 6 setosa 
 7 setosa 
 8 setosa 
 9 setosa 
10 setosa 
# i 140 more rows

Mutate

La función mutate() en R se utiliza para crear nuevas columnas o modificar las existentes

Por ejemplo, queremos crear una columna que sea la suma del atraso en la salida y el atraso en la llegada llamada atraso_total

vuelos %>% 
  mutate(atraso_total = atraso_salida + atraso_llegada) %>% 
  select(atraso_total)

# A tibble: 336,776 x 1
   atraso_total
          <dbl>
 1           13
 2           24
 3           35
 4          -19
 5          -31
 6            8
 7           14
 8          -17
 9          -11
10            6
# i 336,766 more rows

Mutate

También podemos reemplazar una columna ya existente

vuelos %>% 
  mutate(distancia = distancia/2) %>% 
  select(distancia)

# A tibble: 336,776 x 1
   distancia
       <dbl>
 1      700 
 2      708 
 3      544.
 4      788 
 5      381 
 6      360.
 7      532.
 8      114.
 9      472 
10      366.
# i 336,766 more rows
…
